<?xml version="1.0" encoding="UTF-8" standalone="no"?>
<svg
		version="1.1"
		id="svg29"
		xml:space="preserve"
		width="13"
		height="13"
		viewBox="0 0 350 350"
		sodipodi:docname="sd_plugin_logo.svg"
		inkscape:version="1.3.2 (091e20e, 2023-11-25, custom)"
		xmlns:inkscape="http://www.inkscape.org/namespaces/inkscape"
		xmlns:sodipodi="http://sodipodi.sourceforge.net/DTD/sodipodi-0.dtd"
		xmlns="http://www.w3.org/2000/svg"
		xmlns:svg="http://www.w3.org/2000/svg">
  <sodipodi:namedview
		  id="namedview1"
		  pagecolor="#ffffff"
		  bordercolor="#000000"
		  borderopacity="0.25"
		  inkscape:showpageshadow="2"
		  inkscape:pageopacity="0.0"
		  inkscape:pagecheckerboard="0"
		  inkscape:deskcolor="#d1d1d1"
		  inkscape:zoom="45.902978"
		  inkscape:cx="4.8036099"
		  inkscape:cy="6.0889295"
		  inkscape:window-width="1920"
		  inkscape:window-height="1111"
		  inkscape:window-x="-9"
		  inkscape:window-y="-9"
		  inkscape:window-maximized="1"
		  inkscape:current-layer="svg29"
		  showgrid="false" />
	<defs
			id="defs33" />
	<g
			id="g37"
			transform="matrix(0,1.3333333,1.3333333,0,-65.596511,-344.27103)">
    <text
			transform="matrix(-0.00528445,0.99706308,0.99998604,0.00519989,457.20703,62.77148)"
			style="font-variant:normal;font-weight:bold;font-size:201.631px;font-family:Verdana, 'Bitstream Vera Sans', 'DejaVu Sans', Tahoma, Geneva, Arial, sans-serif;-inkscape-font-specification:Verdana-Bold;writing-mode:lr-tb;fill:#ced0d6;fill-opacity:1;fill-rule:nonzero;stroke:none"
			id="text45">       <tspan
			x="0 167.35382 338.74026"
			y="0"
			id="tspan43">S</tspan>    </text>
  </g>
	<g
			id="g1"
			transform="matrix(0,2.9367905,2.3613626,0,-1184.8643,-808.71487)">
    <text
			transform="matrix(-0.00528428,0.99706295,0.99998604,0.00519996,361.98633,587.67822)"
			style="font-style:italic;font-variant:normal;font-weight:bold;font-size:71.4005px;font-family:Verdana, 'Bitstream Vera Sans', 'DejaVu Sans', Tahoma, Geneva, Arial, sans-serif;-inkscape-font-specification:Verdana-BoldItalic;writing-mode:lr-tb;fill:#ced0d6;fill-opacity:1;fill-rule:nonzero;stroke:none"
			id="text53">       <tspan
			x="0 28.774397 79.611542 129.52048 179.42943"
			y="0"
			id="tspan51">d</tspan>    </text>
  </g>
</svg>
